<?xml version="1.0" encoding="UTF-8"?>
<?ICEA pattern?>
<sch:pattern xmlns:sch="http://purl.oclc.org/dsdl/schematron" id="ISM-ID-00249">
	  <sch:p class="ruleText">
		[ISM-ID-00249][Error] Introduced and removed in V9. Never made it to signed package.
	</sch:p>
</sch:pattern>
