<?xml version="1.0" encoding="UTF-8"?>
<?ICEA pattern?>
<!-- Notices - Distribution Notice:
            This document is being made available by the Intelligence Community Chief Information Officer
            to Federal, State, Local, Tribal, and Foreign Partners and associated contractors. Approval for
            any further distribution must be coordinated via the Intelligence Community Chief Information 
            Officer, at ic-standards-support@iarpa.gov.-->
<sch:pattern xmlns:sch="http://purl.oclc.org/dsdl/schematron"
             id="ISM-ID-00086"
             is-a="AttributeContributesToRollup">
  <sch:p class="ruleText">
    [ISM-ID-00086][Error] If ISM_USGOV_RESOURCE and any element in the document:
    1. Meets ISM_CONTRIBUTES
    AND
    2. Has the attribute nonICmarkings containing [ND]
    Then the ISM_RESOURCE_ELEMENT must have nonICmarkings containing [ND].
    
    Human Readable: USA documents having ND Data must have ND at the resource level.
  </sch:p>
  <sch:p class="codeDesc">
    This rule uses an abstract pattern to consolidate logic. If the document
    is an ISM_USGOV_RESOURCE and an element meeting ISM_CONTRIBUTES
    specifies $attrLocalName with a value containing the token $value, this rule ensures that the ISM_RESOURCE_ELEMENT specifies the attribute
    $attrLocalName with a value containing the token $value.
  </sch:p>
  <sch:param name="attrLocalName" value="nonICmarkings"/>
  <sch:param name="value" value="ND"/>
  <sch:param name="errorMessage"
              value="'[ISM-ID-00086][Error] USA documents having ND Data must have ND at the resource level.'"/>
</sch:pattern>
