<?xml version="1.0" encoding="UTF-8"?>
<?ICEA pattern?>
<!-- Notices - Distribution Notice:
            This document is being made available by the Intelligence Community Chief Information Officer
            to Federal, State, Local, Tribal, and Foreign Partners and associated contractors. Approval for
            any further distribution must be coordinated via the Intelligence Community Chief Information 
            Officer, at ic-standards-support@iarpa.gov.-->
<sch:pattern xmlns:sch="http://purl.oclc.org/dsdl/schematron" id="ISM-ID-00031">
    <sch:p class="ruleText">
        [ISM-ID-00031][Error] If ISM_USGOV_RESOURCE and attribute 
        disseminationControls contains the name token [REL] or [EYES], then 
        attribute releasableTo must be specified.
        
        Human Readable: USA documents containing REL TO or EYES ONLY 
        dissemination must specify to which countries the document is releasable.
    </sch:p>
    <sch:p class="codeDesc">
        If the document is an ISM_USGOV_RESOURCE, for each element which has 
    	attribute ism:disseminationControls specified with a value containing
    	the token [REL] or [EYES] this rule ensures that attribute ism:releasableTo
    	is specified.
    </sch:p>
    <sch:rule context="*[$ISM_USGOV_RESOURCE                      and util:containsAnyOfTheTokens(@ism:disseminationControls, ('REL', 'EYES'))]">
        <sch:assert test="@ism:releasableTo" flag="error">
            [ISM-ID-00031][Error] If ISM_USGOV_RESOURCE and attribute 
        	disseminationControls contains the name token [REL] or [EYES], then 
        	attribute releasableTo must be specified.
        	
        	Human Readable: USA documents containing REL TO or EYES ONLY 
        	dissemination must specify to which countries the document is releasable.
        </sch:assert>
    </sch:rule>
</sch:pattern>
