<?xml version="1.0" encoding="UTF-8"?>
<?ICEA pattern?>
<!-- Notices - Distribution Notice:
            This document is being made available by the Intelligence Community Chief Information Officer
            to Federal, State, Local, Tribal, and Foreign Partners and associated contractors. Approval for
            any further distribution must be coordinated via the Intelligence Community Chief Information 
            Officer, at ic-standards-support@iarpa.gov.-->
<sch:pattern xmlns:sch="http://purl.oclc.org/dsdl/schematron" id="ISM-ID-00143">
    <sch:p class="ruleText">
        [ISM-ID-00143][Error] If ISM_USGOV_RESOURCE and attribute 
        derivativelyClassifiedBy is specified, then attribute derivedFrom must
        be specified. 
        
        Human Readable: Derivatively Classified data including DOE data requires
        a derived from value to be identified.
    </sch:p>
    <sch:p class="codeDesc">
    	If the document is an ISM_USGOV_RESOURCE, for each element which 
    	specifies attribute ism:derivativelyClassifiedBy this rule ensures that
    	attribute ism:derivedFrom is specified.
    </sch:p>
	  <sch:rule context="*[$ISM_USGOV_RESOURCE and @ism:derivativelyClassifiedBy]">
        <sch:assert test="@ism:derivedFrom" flag="error">
        	[ISM-ID-00143][Error] If ISM_USGOV_RESOURCE and attribute 
        	derivativelyClassifiedBy is specified, then attribute derivedFrom must
        	be specified. 
        	
        	Human Readable: Derivatively Classified data including DOE data requires
        	a derived from value to be identified.
        </sch:assert>
    </sch:rule>
</sch:pattern>
