<?xml version="1.0" encoding="UTF-8"?>
<?ICEA pattern?>
<!-- Notices - Distribution Notice:
            This document is being made available by the Intelligence Community Chief Information Officer
            to Federal, State, Local, Tribal, and Foreign Partners and associated contractors. Approval for
            any further distribution must be coordinated via the Intelligence Community Chief Information 
            Officer, at ic-standards-support@iarpa.gov.-->
<sch:pattern xmlns:sch="http://purl.oclc.org/dsdl/schematron" id="ISM-ID-00221">
    <sch:p class="ruleText">
        [ISM-ID-00221][Error] If ISM_USGOV_RESOURCE and attribute 
        derivativelyClassifiedBy is specified, then attributes classificationReason
        or classifiedBy must not be specified.
        
        Human Readable: USA documents that are derivatively classified must not
        specify a classification reason or classified by.
    </sch:p>
    <sch:p class="codeDesc">
    	If the document is an ISM_USGOV_RESOURCE, for each element which 
    	specifies attribute ism:derivativelyClassifiedBy this rule ensures that
    	attribute ism:classificationReason or ism:classifiedBy is NOT specified.
    </sch:p>
	  <sch:rule context="*[$ISM_USGOV_RESOURCE and @ism:derivativelyClassifiedBy]">
	      <sch:assert test="not(@ism:classificationReason or @ism:classifiedBy)" flag="error">
        	[ISM-ID-00221][Error] If ISM_USGOV_RESOURCE and attribute 
        	derivativelyClassifiedBy is specified, then attributes classificationReason
        	or classifiedBy must not be specified.
        	
        	Human Readable: USA documents that are derivatively classified must not
        	specify a classification reason or classified by.
        </sch:assert>
    </sch:rule>
    
</sch:pattern>
