<?xml version="1.0" encoding="UTF-8"?>
<?ICEA pattern?>
<!-- Notices - Distribution Notice:
            This document is being made available by the Intelligence Community Chief Information Officer
            to Federal, State, Local, Tribal, and Foreign Partners and associated contractors. Approval for
            any further distribution must be coordinated via the Intelligence Community Chief Information 
            Officer, at ic-standards-support@iarpa.gov.-->
<sch:pattern xmlns:sch="http://purl.oclc.org/dsdl/schematron"
    xmlns:ism="urn:us:gov:ic:ism"
    id="ISM-ID-00332"
    ism:DESVersion="201412"
    ism:resourceElement="true"
    ism:createDate="2011-01-27"
    ism:classification="U"
    ism:ownerProducer="USA">
    <sch:p class="ruleText" ism:classification="U" ism:ownerProducer="USA">
        [ISM-ID-00332][Error] If ISM_USGOV_RESOURCE and attribute SCIcontrols contains the name token [HCS-O], then attribute 
        classification must have a value of [TS] or [S].
        
        Human Readable: A USA document with HCS-OPERATIONS compartment data must be classified SECRET or TOP SECRET.
    </sch:p>
    <sch:p class="codeDesc" ism:classification="U" ism:ownerProducer="USA">
        If the document is an ISM_USGOV_RESOURCE, for each element which
        specifies attribute ism:SCIcontrols with a value containing the token
        [HCS-O], we make sure that attribute ism:classification is
        specified with a value of [TS] or [S].
    </sch:p>
    <sch:rule context="*[$ISM_USGOV_RESOURCE and util:containsAnyOfTheTokens(@ism:SCIcontrols, ('HCS-O'))]"
        ism:classification="U"
        ism:ownerProducer="USA">
        <sch:assert test="util:containsAnyOfTheTokens(@ism:classification, ('TS', 'S'))"
            flag="error">
            [ISM-ID-00332][Error] If ISM_USGOV_RESOURCE and attribute SCIcontrols contains the name token [HCS-O], then attribute 
            classification must have a value of [TS] or [S].
            
            Human Readable: A USA document with HCS-OPERATIONS compartment data must be classified SECRET or TOP SECRET.
        </sch:assert>
    </sch:rule>
</sch:pattern>
