<?xml version="1.0" encoding="UTF-8"?>
<?ICEA pattern?>
<!-- Notices - Distribution Notice:
            This document is being made available by the Intelligence Community Chief Information Officer
            to Federal, State, Local, Tribal, and Foreign Partners and associated contractors. Approval for
            any further distribution must be coordinated via the Intelligence Community Chief Information 
            Officer, at ic-standards-support@iarpa.gov.-->
<sch:pattern xmlns:sch="http://purl.oclc.org/dsdl/schematron" id="ISM-ID-00269">
	  <sch:p class="ruleText">
		[ISM-ID-00269][Error] All classification attributes must be of type NmToken. 
	</sch:p>
	  <sch:p class="codeDesc">
	  	For all elements which contain an classification attribute, this rule ensures that the classification value matches the pattern
		defined for type NmTokens.  
	</sch:p>
	  <sch:rule context="*[@ism:classification]">
		    <sch:assert test="util:meetsType(@ism:classification, $NmTokenPattern)"
                  flag="error">
			[ISM-ID-00269][Error] All classification attributes values must be of type NmToken. 
		</sch:assert>
	  </sch:rule>
</sch:pattern>
