<?xml version="1.0" encoding="UTF-8"?>
<?ICEA pattern?>
<!-- Notices - Distribution Notice:
            This document is being made available by the Intelligence Community Chief Information Officer
            to Federal, State, Local, Tribal, and Foreign Partners and associated contractors. Approval for
            any further distribution must be coordinated via the Intelligence Community Chief Information 
            Officer, at ic-standards-support@iarpa.gov.-->
<sch:pattern xmlns:sch="http://purl.oclc.org/dsdl/schematron" id="ISM-ID-00365">
    <sch:p class="ruleText">
        [ISM-ID-00365][Error] All noAggregation attributes must be of type Boolean. 
    </sch:p>
    <sch:p class="codeDesc">
        For all elements which contain an noAggregation attribute, this rule ensures that the noAggregation value matches the pattern
        defined for type Boolean. 
    </sch:p>
    <sch:rule context="*[@ism:noAggregation]">
        <sch:assert test="util:meetsType(@ism:noAggregation, $BooleanPattern)"
            flag="error">
            [ISM-ID-00365][Error] All noAggregation attribute values must be of type Boolean. 
        </sch:assert>
    </sch:rule>
</sch:pattern>