<?xml version="1.0" encoding="UTF-8"?>
<?ICEA pattern?>
<!-- Notices - Distribution Notice:
            This document is being made available by the Intelligence Community Chief Information Officer
            to Federal, State, Local, Tribal, and Foreign Partners and associated contractors. Approval for
            any further distribution must be coordinated via the Intelligence Community Chief Information 
            Officer, at ic-standards-support@iarpa.gov.-->
<sch:pattern xmlns:sch="http://purl.oclc.org/dsdl/schematron" id="ISM-ID-00316">
    <sch:p class="ruleText">
        [ISM-ID-00316][Error] If ISM_USGOV_RESOURCE and attribute declassExemption of ISM_RESOURCE_ELEMENT contains 
        [NATO] then at least one element meeting ISM_CONTRIBUTES in the document must have a 
        ownerProducer attribute containing [NATO].
        
        Human Readable: USA documents marked with a NATO declass exemption must have NATO portions.
    </sch:p>
    <sch:p class="codeDesc">
      If the document is an ISM_USGOV_RESOURCE, the current element is the
      ISM_RESOURCE_ELEMENT, and attribute ism:declassExemption is specified
      with a value containing the value [NATO], then this rule ensures that some
      element meeting ISM_CONTRIBUTES specifies attribute ism:ownerProducer
      with a value containing [NATO].
    </sch:p>
    <sch:rule context="*[$ISM_USGOV_RESOURCE                         
                       and generate-id(.) = generate-id($ISM_RESOURCE_ELEMENT)                         
                       and util:containsAnyOfTheTokens(@ism:declassException, ('NATO'))]">
        <sch:assert test="util:containsAnyTokenMatching(string-join($partOwnerProducer_tok,' '), ('^NATO:?'))" flag="error">
            [ISM-ID-00316][Error] USA documents marked with a NATO declass exemption must have NATO portions.
        </sch:assert>
    </sch:rule>
</sch:pattern>
