<?xml version="1.0" encoding="UTF-8"?>
<?ICEA pattern?> 
<sch:pattern id="ISM-ID-00320" xmlns:sch="http://purl.oclc.org/dsdl/schematron" is-a="CheckCommonCountries">
   <sch:p class="ruleText">
      
   </sch:p>
   <sch:p class="codeDesc">
      
   </sch:p>
   
   <sch:param name="ruleId" value="'ISM-ID-00320'"/>
   <sch:param name="attrLocalName" value="'displayOnlyTo'"/>
   <sch:param name="actualBannerTokens" value="$displayToActualBannerTokens"/> 
   <sch:param name="calculatedBannerTokens" value="$displayToCalculatedBannerTokens"/>
   
</sch:pattern>
