<?xml version="1.0" encoding="UTF-8"?>
<?ICEA pattern?>
<!-- Notices - Distribution Notice:
            This document is being made available by the Intelligence Community Chief Information Officer
            to Federal, State, Local, Tribal, and Foreign Partners and associated contractors. Approval for
            any further distribution must be coordinated via the Intelligence Community Chief Information 
            Officer, at ic-standards-support@iarpa.gov.-->
<sch:pattern xmlns:sch="http://purl.oclc.org/dsdl/schematron"
             id="ISM-ID-00152"
             is-a="DataHasCorrespondingNotice">
    <sch:p class="ruleText">
        [ISM-ID-00152][Error] If ISM_USGOV_RESOURCE and:
        1. Any element meeting ISM_CONTRIBUTES in the document has the attribute nonICmarkings containing [LES-NF]
        AND
        2. No element meeting ISM_CONTRIBUTES in the document has the attribute noticeType containing [LES-NF]
        and does not have attribute externalNotice with a value of [true].
        Human Readable: USA documents containing LES-NF data must also have an LES-NF notice. 
    </sch:p>
    <sch:p class="codeDesc">
        This rule uses an abstract pattern to consolidate logic.
        If the document is an ISM_USGOV_RESOURCE, for each element which
        meets ISM_CONTRIBUTES and specifies attribute ism:nonICmarkings
        with a value containing the token [LES-NF], this rule ensures that an element
        meeting ISM_CONTRIBUTES specifies attribute ism:noticeType with a value
        containing the token [LES-NF] and does not specifiy attribute ism:externalNotice with a 
        value of [true].
    </sch:p>
    <sch:param name="ruleId" value="'ISM-ID-00152'"/>
    <sch:param name="attrName" value="'nonICmarkings'"/>
    <sch:param name="attrValue" value="@ism:nonICmarkings"/>
    <sch:param name="noticeType" value="'LES-NF'"/>
</sch:pattern>
