<?xml version="1.0" encoding="UTF-8"?>
<?ICEA pattern?>
<!-- Notices - Distribution Notice:
            This document is being made available by the Intelligence Community Chief Information Officer
            to Federal, State, Local, Tribal, and Foreign Partners and associated contractors. Approval for
            any further distribution must be coordinated via the Intelligence Community Chief Information 
            Officer, at ic-standards-support@iarpa.gov.-->
<sch:pattern xmlns:sch="http://purl.oclc.org/dsdl/schematron" id="ISM-ID-00307">
    <sch:p class="ruleText">
        [ISM-ID-00307][Error] If ISM_USGOV_RESOURCE and attribute SCIcontrols contains a token matching [TK-BLFH-XXXXXX],
        where X is represented by the regular expression character class [A-Z]{1,6}, then it must also contain the
        name token [TK-BLFH].
        
        Human Readable: A USA document that contains TALENT KEYHOLE (TK) BLUEFISH sub-compartments must
        also specify that it contains TK -BLUEFISH compartment data.
    </sch:p>
    <sch:p class="codeDesc">
        If the document is an ISM_USGOV_RESOURCE, for each element which
        specifies attribute ism:SCIcontrols with a value containing a token
        matching [TK-BLFH-XXXXXX], where X is represented by the regular expression
        character class [A-Z]{1,6}, this rule ensures that attribute ism:SCIcontrols is 
        specified with a value containing the token [TK-BLFH].
    </sch:p>
    <sch:rule context="*[$ISM_USGOV_RESOURCE         and util:containsAnyTokenMatching(@ism:SCIcontrols, ('^TK-BLFH-[A-Z]{1,6}$'))]">
        <sch:assert test="util:containsAnyOfTheTokens(@ism:SCIcontrols, ('TK-BLFH'))"
                  flag="error">
            [ISM-ID-00307][Error] If ISM_USGOV_RESOURCE and attribute SCIcontrols contains a token matching [TK-BLFH-XXXXXX],
            where X is represented by the regular expression character class [A-Z]{1,6}, then it must also contain the
            name token [TK-BLFH].
            
            Human Readable: A USA document that contains TALENT KEYHOLE (TK) BLUEFISH sub-compartments must
            also specify that it contains TK -BLUEFISH compartment data.
        </sch:assert>
    </sch:rule>
</sch:pattern>
