<?xml version="1.0" encoding="UTF-8"?>
<?ICEA pattern?>
<!-- Notices - Distribution Notice:
            This document is being made available by the Intelligence Community Chief Information Officer
            to Federal, State, Local, Tribal, and Foreign Partners and associated contractors. Approval for
            any further distribution must be coordinated via the Intelligence Community Chief Information 
            Officer, at ic-standards-support@iarpa.gov.-->
<sch:pattern xmlns:sch="http://purl.oclc.org/dsdl/schematron"
             id="ISM-ID-00071"
             is-a="AttributeContributesToRollup">
    <sch:p class="ruleText">
        [ISM-ID-00071][Error] If ISM_USGOV_RESOURCE and any element meeting ISM_CONTRIBUTES 
        in the document have the attribute disseminationControls containing [PR] then the ISM_RESOURCE_ELEMENT must have 
        disseminationControls containing [PR].
        
        Human Readable: USA documents having PROPIN data must have PROPIN at the resource level.
    </sch:p>
    <sch:p class="codeDesc">
      This rule uses an abstract pattern to consolidate logic. If the document
      is an ISM_USGOV_RESOURCE and an element meeting ISM_CONTRIBUTES
      specifies $attrLocalName with a value containing the token $value, this rule ensures that the ISM_RESOURCE_ELEMENT specifies the attribute
      $attrLocalName with a value containing the token $value.
    </sch:p>
  <sch:param name="attrLocalName" value="disseminationControls"/>
  <sch:param name="value" value="PR"/>
  <sch:param name="errorMessage"
              value="'[ISM-ID-00071][Error] USA documents having PROPIN data must have PROPIN at the resource level.'"/>
</sch:pattern>
