<?xml version="1.0" encoding="UTF-8"?>
<?ICEA pattern?>
<!-- Notices - Distribution Notice:
            This document is being made available by the Intelligence Community Chief Information Officer
            to Federal, State, Local, Tribal, and Foreign Partners and associated contractors. Approval for
            any further distribution must be coordinated via the Intelligence Community Chief Information 
            Officer, at ic-standards-support@iarpa.gov.-->
<sch:pattern xmlns:sch="http://purl.oclc.org/dsdl/schematron" id="ISM-ID-00158">
    <sch:p class="ruleText">
        [ISM-ID-00158][Error] If ISM_USDOD_RESOURCE and:
            1. not ISM_DOD_DISTRO_EXEMPT AND
            2. attribute classification of ISM_RESOURCE_ELEMENT is not [U] AND
            3. A resource attribute notice does not contain one of [DoD-Dist-B], [DoD-Dist-C],
        [DoD-Dist-D], [DoD-Dist-E], or [DoD-Dist-F].
        
        Human Readable: All classified DOD documents that do not claim
        exemption from DoD5230.24 distribution statements must use one
        of DoD distribution statements B, C, D, E, or F.
    </sch:p>
    <sch:p class="codeDesc">
        If the document is an ISM_USDOD_RESOURCE and not ISM_DOD_DISTRO_EXEMPT and
        the attribute classification of ISM_RESOURCE_ELEMENT is not [U], then this rule ensures that the
        resource element specifies attribute ism:noticeType with a value containing the token
        [DoD-Dist-B], [DoD-Dist-C], [DoD-Dist-D], [DoD-Dist-E], or [DoD-Dist-F].
    </sch:p>
    <sch:rule context="*[$ISM_USDOD_RESOURCE                         and not($ISM_DOD_DISTRO_EXEMPT)                         and generate-id(.) = generate-id($ISM_RESOURCE_ELEMENT)                         and not(@ism:classification='U')]">
        <sch:assert test="             util:containsAnyOfTheTokens(@ism:noticeType,               ('DoD-Dist-B', 'DoD-Dist-C', 'DoD-Dist-D', 'DoD-Dist-E', 'DoD-Dist-F'))"
                  flag="error"> [ISM-ID-00158][Error] If ISM_USDOD_RESOURCE and:
               1. not ISM_DOD_DISTRO_EXEMPT AND
               2. attribute classification of ISM_RESOURCE_ELEMENT is not [U] AND
               3. A resource attribute notice does not contain one of [DoD-Dist-B],
                  [DoD-Dist-C], [DoD-Dist-D], [DoD-Dist-E], or [DoD-Dist-F].
                  
            Human Readable: All classified DOD documents that do not claim
            exemption from DoD5230.24 distribution statements
            must use one of DoD distribution statements B, C, D, E, or F.
        </sch:assert>
    </sch:rule>
</sch:pattern>
